<svg xmlns="http://www.w3.org/2000/svg" height="48" width="48">
    <defs>
        <linearGradient gradientUnits="userSpaceOnUse" gradientTransform="scale(1.00909 .991)" id="a" y2="53.028" x2="-11.577" y1="-14.466" x1="79.549">
            <stop offset="0%" stop-color="#D446FF"/>
            <stop offset="100%" stop-color="#A0D8FF"/>
        </linearGradient>
        <linearGradient gradientUnits="userSpaceOnUse" gradientTransform="scale(1.20494 .82991)" id="b" y2="23.636" x2="40.201" y1="34.175" x1="20.774">
            <stop offset="0%" stop-color="#FFF"/>
            <stop offset="100%" stop-color="#DADADA"/>
        </linearGradient>
        <linearGradient gradientUnits="userSpaceOnUse" gradientTransform="scale(1.1141 .8976)" id="c" y2="32.59" x2="11.382" y1="50.334" x1="25.715">
            <stop offset="0%" stop-color="#FFF"/>
            <stop offset="100%" stop-color="#DADADA"/>
        </linearGradient>
        <linearGradient gradientUnits="userSpaceOnUse" gradientTransform="scale(1.35501 .738)" id="d" y2="24.662" x2="16.495" y1="15.711" x1="36.867">
            <stop offset="0%" stop-color="#D0D0D0"/>
            <stop offset="100%" stop-color="#FFF"/>
        </linearGradient>
        <linearGradient gradientUnits="userSpaceOnUse" gradientTransform="scale(1.16376 .85929)" id="e" y2="67.829" x2="-6.139" y1="39.959" x1="16.49">
            <stop offset="0%" stop-color="#FFDC68"/>
            <stop offset="100%" stop-color="#CE4300"/>
        </linearGradient>
        <linearGradient gradientUnits="userSpaceOnUse" gradientTransform="scale(2.1467 .46583)" id="f" y2="24.525" x2="5.084" y1="22.935" x1="10.298">
            <stop offset="0%" stop-color="#FFDC68"/>
            <stop offset="100%" stop-color="#CE4300"/>
        </linearGradient>
        <linearGradient gradientUnits="userSpaceOnUse" gradientTransform="scale(1.4995 .66689)" id="g" y2="67.983" x2="-5.535" y1="38.663" x1="13.559">
            <stop offset="0%" stop-color="#FFDC68"/>
            <stop offset="100%" stop-color="#CE4300"/>
        </linearGradient>
    </defs>
    <g transform="matrix(.88702 0 0 .88703 .216 .626)" fill="none" fill-rule="evenodd" stroke-width="1.007">
        <ellipse cx="26.813" cy="26.351" rx="26.805" ry="26.32" fill="url(#a)" fill-rule="nonzero" stroke="#a3a3a3" stroke-width=".503"/>
        <path d="M9.372 52.082S17.75 22.77 50.357 26.497c0 0-20.724-12.302-40.842 4.283-5.941 13.762-.143 21.302-.143 21.302z" fill="url(#b)"/>
        <path d="M11.866 48.374s8.74-21.073 32.072-21.443c-17.735 4.32.029 19.638.029 19.638s-14.029 12.71-32.101 1.805z" fill="url(#c)"/>
        <path d="M7 32.22s17.457-19.203 43.528-5.935c-.466-3.608-3.55-7.682-9.078-8.846-1.222-.582-10.184-14.432-29.446-6.46 5.926.462 8.468 1.292 8.613 1.921C10.369 11.14 7.33 25.723 7 32.22z" fill="url(#d)"/>
        <path d="M32.037 15.93s4.467-1.6 5.048 3.158c-4.404.415-5.048-3.158-5.048-3.158z" fill="#202020"/>
        <path d="M9.255 52.177s7.636-24.909 33.166-25.873c0 0-20.716-3.78-35.348 19.398-.08 3.279 2.182 6.475 2.182 6.475z" fill="url(#e)"/>
        <path d="M12.026 10.982s6.367.37 8.64 1.934c.95-.195 1.756-.845 1.893-1.73-.815-.337-8.27-.944-10.533-.204z" fill="url(#f)"/>
        <path d="M7.057 32.253s7.972-9.575 24.067-10.719c0 0-21.91.99-23.75 7.177-.51 1.488-.317 3.542-.317 3.542z" fill="url(#g)"/>
    </g>
</svg>
