<svg width="48" xmlns="http://www.w3.org/2000/svg" height="48">
    <defs>
        <linearGradient id="c" y1="543.8" x1="434.57" y2="503.8" gradientUnits="userSpaceOnUse" x2="384.57" gradientTransform="matrix(.6875 0 0 .9 -253.35 -430.33)">
            <stop stop-color="#343b40"/>
            <stop offset="1" stop-color="#555e63"/>
        </linearGradient>
        <linearGradient id="b" y1="-3.547" x1="52.47" y2="47.44" gradientUnits="userSpaceOnUse" x2="13.75" gradientTransform="matrix(.64568 0 0 -.608 6.122 60.844)">
            <stop stop-color="#efefef"/>
            <stop offset="1" stop-color="#fbfbfb"/>
        </linearGradient>
        <linearGradient id="a" y1="42.995" x1="-3.01" y2="7.995" gradientUnits="userSpaceOnUse" x2="-29.01" gradientTransform="translate(40.02 17.01)">
            <stop stop-color="#317ac2"/>
            <stop offset="1" stop-color="#36a5e6"/>
        </linearGradient>
        <radialGradient cx="22.71" cy="41.662" id="d" r="14" gradientUnits="userSpaceOnUse" gradientTransform="matrix(1.14358 -.95295 .49336 .59205 -19.376 36.688)">
            <stop stop-color="#fff"/>
            <stop offset="1" stop-color="#fff" stop-opacity="0"/>
        </radialGradient>
    </defs>
    <g color="#000">
        <path fill="url(#a)" d="M39.999 19L40 61H10.001L10 19z" transform="translate(0 -16)"/>
        <path fill="#545772" d="M9 25h3v3H9v-3"/>
    </g>
    <path fill="url(#b)" d="M12 59V21h26v38z" transform="translate(0 -16)"/>
    <g color="#000">
        <path opacity=".832" fill="url(#c)" d="M33 30.996L25 31l-4.441 7.691-1.555-2.695-1.958.097v1h1.428l2.133 3.693.531-1.095 4.443-7.695 7.42.004zm-5 3c-1.662 0-3 1.338-3 3a2.993 2.993 0 0 0 5 2.225v.775h1v-6h-1v.775a2.98 2.98 0 0 0-2-.775m0 1c1.108 0 2 .892 2 2s-.892 2-2 2-2-.892-2-2 .892-2 2-2m-10.945 6.087c-.006 0-.01.223-.01.5s.004.5.01.5l15.935-.097c.006 0 .01-.223.01-.5s-.004-.5-.01-.5zM23 42.996v1h4v-1z" transform="translate(0 -16)"/>
        <g fill="#545772">
            <path d="M9 10h2.999v3h-3L9 10M9 15h2.999v3h-3L9 15M9 20h3v3H9v-3M12 30v3H9.001L9 30M9 35h2.999l-.001 3H8.999L9 35M8.999 40h3v3h-3M9 5h2.999v3h-3L9 5"/>
        </g>
        <path opacity=".28" fill="#333" d="M38 5l2 2v38H14l-2-2h26z"/>
        <g fill="#545772">
            <path d="M9 10h2v3H9l.001-3M9 20h2v3H9l.001-3M9 30h2v3H9l.001-3M9 40h2v3H9l.001-3M9 15h2v3H9l.001-3M9 25h2v3H9l.001-3M9 35h2v3H9l.001-3"/>
            <path d="M9 5h1v38H9"/>
            <path d="M9 5h2v3H9l.001-3"/>
        </g>
        <path opacity=".742" fill="url(#d)" fill-rule="evenodd" d="M40 19v5L12 48V19z" transform="translate(0 -16)"/>
    </g>
</svg>
